digraph "si5345::read_MXAXB"
{
 // LATEX_PDF_SIZE
  edge [fontname="Helvetica",fontsize="10",labelfontname="Helvetica",labelfontsize="10"];
  node [fontname="Helvetica",fontsize="10",shape=record];
  rankdir="LR";
  Node1 [label="si5345::read_MXAXB",height=0.2,width=0.4,color="black", fillcolor="grey75", style="filled", fontcolor="black",tooltip=" "];
  Node1 -> Node2 [color="midnightblue",fontsize="10",style="solid",fontname="Helvetica"];
  Node2 [label="si5345::read_reg_MXAXB\l_denominator",height=0.2,width=0.4,color="black", fillcolor="white", style="filled",URL="$classsi5345.html#a06c317ed4fb59fa4603862800a09a5b4",tooltip=" "];
  Node2 -> Node3 [color="midnightblue",fontsize="10",style="solid",fontname="Helvetica"];
  Node3 [label="si5345::read_register\l_by_size",height=0.2,width=0.4,color="black", fillcolor="white", style="filled",URL="$classsi5345.html#a2369605bf5dc48c049546c6a954c98b5",tooltip=" "];
  Node3 -> Node4 [color="midnightblue",fontsize="10",style="solid",fontname="Helvetica"];
  Node4 [label="si5345_interface::read\l_register",height=0.2,width=0.4,color="black", fillcolor="white", style="filled",URL="$classsi5345__interface.html#a8de0c0bb9b5c7fabb0794c40878eb8b2",tooltip=" "];
  Node1 -> Node5 [color="midnightblue",fontsize="10",style="solid",fontname="Helvetica"];
  Node5 [label="si5345::read_reg_MXAXB\l_numerator",height=0.2,width=0.4,color="black", fillcolor="white", style="filled",URL="$classsi5345.html#a1cdc5a9d7bb0ce37cdec266efc1b3062",tooltip=" "];
  Node5 -> Node3 [color="midnightblue",fontsize="10",style="solid",fontname="Helvetica"];
}
