digraph "si5345::set_input_clear_trigger_threshold_regs"
{
 // LATEX_PDF_SIZE
  edge [fontname="Helvetica",fontsize="10",labelfontname="Helvetica",labelfontsize="10"];
  node [fontname="Helvetica",fontsize="10",shape=record];
  rankdir="LR";
  Node1 [label="si5345::set_input_clear\l_trigger_threshold_regs",height=0.2,width=0.4,color="black", fillcolor="grey75", style="filled", fontcolor="black",tooltip=" "];
  Node1 -> Node2 [color="midnightblue",fontsize="10",style="solid"];
  Node2 [label="si5345::write_register\l_by_size",height=0.2,width=0.4,color="black", fillcolor="white", style="filled",URL="$classsi5345.html#aa872494d50d432eab3df820677ad859f",tooltip=" "];
  Node2 -> Node3 [color="midnightblue",fontsize="10",style="solid"];
  Node3 [label="si5345_interface::write\l_register",height=0.2,width=0.4,color="black", fillcolor="white", style="filled",URL="$classsi5345__interface.html#a4003df7161cafc8f1b55499521691694",tooltip=" "];
}
