digraph "si5345"
{
 // LATEX_PDF_SIZE
  edge [fontname="Helvetica",fontsize="10",labelfontname="Helvetica",labelfontsize="10"];
  node [fontname="Helvetica",fontsize="10",shape=record];
  Node1 [label="si5345",height=0.2,width=0.4,color="black", fillcolor="grey75", style="filled", fontcolor="black",tooltip=" "];
  Node2 -> Node1 [dir="back",color="darkorchid3",fontsize="10",style="dashed",label=" mInterface" ];
  Node2 [label="si5345_interface",height=0.2,width=0.4,color="black", fillcolor="white", style="filled",URL="$classsi5345__interface.html",tooltip=" "];
}
