digraph "si5345::set_OUT0_RDIV_FORCE2"
{
 // LATEX_PDF_SIZE
  edge [fontname="Helvetica",fontsize="10",labelfontname="Helvetica",labelfontsize="10"];
  node [fontname="Helvetica",fontsize="10",shape=record];
  rankdir="LR";
  Node1 [label="si5345::set_OUT0_RDIV\l_FORCE2",height=0.2,width=0.4,color="black", fillcolor="grey75", style="filled", fontcolor="black",tooltip=" "];
  Node1 -> Node2 [color="midnightblue",fontsize="10",style="solid"];
  Node2 [label="si5345_interface::read\l_register",height=0.2,width=0.4,color="black", fillcolor="white", style="filled",URL="$classsi5345__interface.html#a8de0c0bb9b5c7fabb0794c40878eb8b2",tooltip=" "];
  Node1 -> Node3 [color="midnightblue",fontsize="10",style="solid"];
  Node3 [label="si5345_interface::write\l_register",height=0.2,width=0.4,color="black", fillcolor="white", style="filled",URL="$classsi5345__interface.html#a4003df7161cafc8f1b55499521691694",tooltip=" "];
}
