digraph "si5345::read_reg_MXAXB_numerator"
{
 // LATEX_PDF_SIZE
  edge [fontname="Helvetica",fontsize="10",labelfontname="Helvetica",labelfontsize="10"];
  node [fontname="Helvetica",fontsize="10",shape=record];
  rankdir="LR";
  Node1 [label="si5345::read_reg_MXAXB\l_numerator",height=0.2,width=0.4,color="black", fillcolor="grey75", style="filled", fontcolor="black",tooltip=" "];
  Node1 -> Node2 [color="midnightblue",fontsize="10",style="solid"];
  Node2 [label="si5345::read_register\l_by_size",height=0.2,width=0.4,color="black", fillcolor="white", style="filled",URL="$classsi5345.html#a2369605bf5dc48c049546c6a954c98b5",tooltip=" "];
  Node2 -> Node3 [color="midnightblue",fontsize="10",style="solid"];
  Node3 [label="si5345_interface::read\l_register",height=0.2,width=0.4,color="black", fillcolor="white", style="filled",URL="$classsi5345__interface.html#a8de0c0bb9b5c7fabb0794c40878eb8b2",tooltip=" "];
}
