digraph "si5345::select_input"
{
 // LATEX_PDF_SIZE
  edge [fontname="Helvetica",fontsize="10",labelfontname="Helvetica",labelfontsize="10"];
  node [fontname="Helvetica",fontsize="10",shape=record];
  rankdir="LR";
  Node1 [label="si5345::select_input",height=0.2,width=0.4,color="black", fillcolor="grey75", style="filled", fontcolor="black",tooltip=" "];
  Node1 -> Node2 [color="midnightblue",fontsize="10",style="solid"];
  Node2 [label="si5345::control_output\l_en_all",height=0.2,width=0.4,color="black", fillcolor="white", style="filled",URL="$classsi5345.html#aad4c02703484abe484cdf18c14aa3b84",tooltip=" "];
  Node2 -> Node3 [color="midnightblue",fontsize="10",style="solid"];
  Node3 [label="si5345_interface::write\l_register",height=0.2,width=0.4,color="black", fillcolor="white", style="filled",URL="$classsi5345__interface.html#a4003df7161cafc8f1b55499521691694",tooltip=" "];
  Node1 -> Node4 [color="midnightblue",fontsize="10",style="solid"];
  Node4 [label="si5345::set_divider_P",height=0.2,width=0.4,color="black", fillcolor="white", style="filled",URL="$classsi5345.html#aafe76a152b5d4587d45e323da40dd780",tooltip=" "];
  Node4 -> Node5 [color="midnightblue",fontsize="10",style="solid"];
  Node5 [label="si5345::set_divider\l_P_denominator",height=0.2,width=0.4,color="black", fillcolor="white", style="filled",URL="$classsi5345.html#aa2383bcd0224f031e77450fb45dbb1d1",tooltip=" "];
  Node5 -> Node6 [color="midnightblue",fontsize="10",style="solid"];
  Node6 [label="si5345::write_register\l_by_size",height=0.2,width=0.4,color="black", fillcolor="white", style="filled",URL="$classsi5345.html#aa872494d50d432eab3df820677ad859f",tooltip=" "];
  Node6 -> Node3 [color="midnightblue",fontsize="10",style="solid"];
  Node4 -> Node7 [color="midnightblue",fontsize="10",style="solid"];
  Node7 [label="si5345::set_divider\l_P_numerator",height=0.2,width=0.4,color="black", fillcolor="white", style="filled",URL="$classsi5345.html#a9d7ec4120925d7c4e93310c78af9f172",tooltip=" "];
  Node7 -> Node6 [color="midnightblue",fontsize="10",style="solid"];
  Node4 -> Node8 [color="midnightblue",fontsize="10",style="solid"];
  Node8 [label="si5345::update_P_values",height=0.2,width=0.4,color="black", fillcolor="white", style="filled",URL="$classsi5345.html#a76257cb13c6ff7b70468c4322f0b34bd",tooltip=" "];
  Node8 -> Node3 [color="midnightblue",fontsize="10",style="solid"];
  Node1 -> Node9 [color="midnightblue",fontsize="10",style="solid"];
  Node9 [label="si5345::set_input_clear\l_trigger_threshold_regs",height=0.2,width=0.4,color="black", fillcolor="white", style="filled",URL="$classsi5345.html#a15ebb7dd3af34c6ad4cd6dfdae712c8a",tooltip=" "];
  Node9 -> Node6 [color="midnightblue",fontsize="10",style="solid"];
  Node1 -> Node10 [color="midnightblue",fontsize="10",style="solid"];
  Node10 [label="si5345::set_input_enable",height=0.2,width=0.4,color="black", fillcolor="white", style="filled",URL="$classsi5345.html#a929891cb862545ab479f329d194429ff",tooltip=" "];
  Node10 -> Node11 [color="midnightblue",fontsize="10",style="solid"];
  Node11 [label="si5345_interface::read\l_register",height=0.2,width=0.4,color="black", fillcolor="white", style="filled",URL="$classsi5345__interface.html#a8de0c0bb9b5c7fabb0794c40878eb8b2",tooltip=" "];
  Node10 -> Node12 [color="midnightblue",fontsize="10",style="solid"];
  Node12 [label="si5345::set_fastlock\l_enable",height=0.2,width=0.4,color="black", fillcolor="white", style="filled",URL="$classsi5345.html#aff7f37aa803e01a4cc8254e18dd150f6",tooltip=" "];
  Node12 -> Node3 [color="midnightblue",fontsize="10",style="solid"];
  Node10 -> Node3 [color="midnightblue",fontsize="10",style="solid"];
  Node1 -> Node13 [color="midnightblue",fontsize="10",style="solid"];
  Node13 [label="si5345::set_input_fixed_regs",height=0.2,width=0.4,color="black", fillcolor="white", style="filled",URL="$classsi5345.html#a59ec122280d1ed44e8b8c565f2b2abe1",tooltip=" "];
  Node13 -> Node6 [color="midnightblue",fontsize="10",style="solid"];
  Node1 -> Node14 [color="midnightblue",fontsize="10",style="solid"];
  Node14 [label="si5345::set_input_HOLD\l_15M_CYC_COUNT_PLLB_regs",height=0.2,width=0.4,color="black", fillcolor="white", style="filled",URL="$classsi5345.html#ae1141d637e6b0151e2cc659ba5a4243c",tooltip=" "];
  Node14 -> Node6 [color="midnightblue",fontsize="10",style="solid"];
  Node1 -> Node15 [color="midnightblue",fontsize="10",style="solid"];
  Node15 [label="si5345::set_input_HOLDEXIT\l_BW5_regs",height=0.2,width=0.4,color="black", fillcolor="white", style="filled",URL="$classsi5345.html#a7d632eddc7d6a9f675c7e2f9792ef5a1",tooltip=" "];
  Node15 -> Node6 [color="midnightblue",fontsize="10",style="solid"];
  Node1 -> Node16 [color="midnightblue",fontsize="10",style="solid"];
  Node16 [label="si5345::set_input_HSW\l_COARSE_PM_LEN_regs",height=0.2,width=0.4,color="black", fillcolor="white", style="filled",URL="$classsi5345.html#a4dcddccc16e5906d27e244db915e6285",tooltip=" "];
  Node16 -> Node6 [color="midnightblue",fontsize="10",style="solid"];
  Node1 -> Node17 [color="midnightblue",fontsize="10",style="solid"];
  Node17 [label="si5345::set_input_los\l_trigger_threshold_regs",height=0.2,width=0.4,color="black", fillcolor="white", style="filled",URL="$classsi5345.html#a69e54a0ede03668694e8623162537adb",tooltip=" "];
  Node17 -> Node6 [color="midnightblue",fontsize="10",style="solid"];
  Node1 -> Node18 [color="midnightblue",fontsize="10",style="solid"];
  Node18 [label="si5345::set_input_PFD\l_EN_DELAY_regs",height=0.2,width=0.4,color="black", fillcolor="white", style="filled",URL="$classsi5345.html#aacdd25d987772385da2d47453f2ce5a9",tooltip=" "];
  Node18 -> Node6 [color="midnightblue",fontsize="10",style="solid"];
  Node1 -> Node19 [color="midnightblue",fontsize="10",style="solid"];
  Node19 [label="si5345::set_input_REFCLK\l_HYS_SEL_regs",height=0.2,width=0.4,color="black", fillcolor="white", style="filled",URL="$classsi5345.html#aa102e36eabb312df495f51a0b1df0c6d",tooltip=" "];
  Node19 -> Node6 [color="midnightblue",fontsize="10",style="solid"];
  Node1 -> Node20 [color="midnightblue",fontsize="10",style="solid"];
  Node20 [label="si5345::set_input_reference_regs",height=0.2,width=0.4,color="black", fillcolor="white", style="filled",URL="$classsi5345.html#a48b0268aa56e725229e96e9f7fbaa36b",tooltip=" "];
  Node20 -> Node3 [color="midnightblue",fontsize="10",style="solid"];
  Node20 -> Node6 [color="midnightblue",fontsize="10",style="solid"];
  Node1 -> Node21 [color="midnightblue",fontsize="10",style="solid"];
  Node21 [label="si5345::set_M",height=0.2,width=0.4,color="black", fillcolor="white", style="filled",URL="$classsi5345.html#afaf27a4045f69b0242beab842bad636f",tooltip=" "];
  Node21 -> Node22 [color="midnightblue",fontsize="10",style="solid"];
  Node22 [label="si5345::set_M_denominator",height=0.2,width=0.4,color="black", fillcolor="white", style="filled",URL="$classsi5345.html#a42faacf902f64603d71d0fbe209bd5b3",tooltip=" "];
  Node22 -> Node23 [color="midnightblue",fontsize="10",style="solid"];
  Node23 [label="si5345::postamble_reg\l_modifications",height=0.2,width=0.4,color="black", fillcolor="white", style="filled",URL="$classsi5345.html#a59d4ee6227d0295c34604b7336a39480",tooltip=" "];
  Node23 -> Node3 [color="midnightblue",fontsize="10",style="solid"];
  Node22 -> Node24 [color="midnightblue",fontsize="10",style="solid"];
  Node24 [label="si5345::preamble_reg\l_modifications",height=0.2,width=0.4,color="black", fillcolor="white", style="filled",URL="$classsi5345.html#a304857dc35a28bd52ce5d06971d39bf5",tooltip=" "];
  Node24 -> Node3 [color="midnightblue",fontsize="10",style="solid"];
  Node22 -> Node6 [color="midnightblue",fontsize="10",style="solid"];
  Node21 -> Node25 [color="midnightblue",fontsize="10",style="solid"];
  Node25 [label="si5345::set_M_numerator",height=0.2,width=0.4,color="black", fillcolor="white", style="filled",URL="$classsi5345.html#a206c21d1e8f749144011549084bd29be",tooltip=" "];
  Node25 -> Node23 [color="midnightblue",fontsize="10",style="solid"];
  Node25 -> Node24 [color="midnightblue",fontsize="10",style="solid"];
  Node25 -> Node6 [color="midnightblue",fontsize="10",style="solid"];
  Node21 -> Node26 [color="midnightblue",fontsize="10",style="solid"];
  Node26 [label="si5345::update_M",height=0.2,width=0.4,color="black", fillcolor="white", style="filled",URL="$classsi5345.html#ab15d08939eb579cd7ca6d65f62e60701",tooltip=" "];
  Node26 -> Node23 [color="midnightblue",fontsize="10",style="solid"];
  Node26 -> Node24 [color="midnightblue",fontsize="10",style="solid"];
  Node26 -> Node3 [color="midnightblue",fontsize="10",style="solid"];
  Node1 -> Node27 [color="midnightblue",fontsize="10",style="solid"];
  Node27 [label="si5345::set_P_fractional_mode",height=0.2,width=0.4,color="black", fillcolor="white", style="filled",URL="$classsi5345.html#a81434e99c73c1223f33ae83c841e032b",tooltip=" "];
  Node27 -> Node23 [color="midnightblue",fontsize="10",style="solid"];
  Node27 -> Node24 [color="midnightblue",fontsize="10",style="solid"];
  Node27 -> Node3 [color="midnightblue",fontsize="10",style="solid"];
  Node1 -> Node28 [color="midnightblue",fontsize="10",style="solid"];
  Node28 [label="si5345::write_reg_input\l_clock_select_in_sel",height=0.2,width=0.4,color="black", fillcolor="white", style="filled",URL="$classsi5345.html#a5f866a95fe886ead8ce3b84140eaaac9",tooltip=" "];
  Node28 -> Node3 [color="midnightblue",fontsize="10",style="solid"];
}
