digraph "si5345::set_MXAXB"
{
 // LATEX_PDF_SIZE
  edge [fontname="Helvetica",fontsize="10",labelfontname="Helvetica",labelfontsize="10"];
  node [fontname="Helvetica",fontsize="10",shape=record];
  rankdir="LR";
  Node1 [label="si5345::set_MXAXB",height=0.2,width=0.4,color="black", fillcolor="grey75", style="filled", fontcolor="black",tooltip=" "];
  Node1 -> Node2 [color="midnightblue",fontsize="10",style="solid"];
  Node2 [label="si5345::create_fraction",height=0.2,width=0.4,color="black", fillcolor="white", style="filled",URL="$classsi5345.html#a83c51fb00ce595cd902daf5141d18059",tooltip=" "];
  Node2 -> Node3 [color="midnightblue",fontsize="10",style="solid"];
  Node3 [label="si5345::gcd",height=0.2,width=0.4,color="black", fillcolor="white", style="filled",URL="$classsi5345.html#a84d90561df9b3a6900de629d02503338",tooltip=" "];
  Node1 -> Node4 [color="midnightblue",fontsize="10",style="solid"];
  Node4 [label="si5345::set_MXAXB",height=0.2,width=0.4,color="black", fillcolor="white", style="filled",URL="$classsi5345.html#aa38b68830a24cdb6f089538d7b3ebcb5",tooltip=" "];
  Node4 -> Node5 [color="midnightblue",fontsize="10",style="solid"];
  Node5 [label="si5345::set_MXAXB_denominator",height=0.2,width=0.4,color="black", fillcolor="white", style="filled",URL="$classsi5345.html#ae1e4ee04633e90e0913a15bb74461f82",tooltip=" "];
  Node5 -> Node6 [color="midnightblue",fontsize="10",style="solid"];
  Node6 [label="si5345::postamble_reg\l_modifications",height=0.2,width=0.4,color="black", fillcolor="white", style="filled",URL="$classsi5345.html#a59d4ee6227d0295c34604b7336a39480",tooltip=" "];
  Node6 -> Node7 [color="midnightblue",fontsize="10",style="solid"];
  Node7 [label="si5345_interface::write\l_register",height=0.2,width=0.4,color="black", fillcolor="white", style="filled",URL="$classsi5345__interface.html#a4003df7161cafc8f1b55499521691694",tooltip=" "];
  Node5 -> Node8 [color="midnightblue",fontsize="10",style="solid"];
  Node8 [label="si5345::preamble_reg\l_modifications",height=0.2,width=0.4,color="black", fillcolor="white", style="filled",URL="$classsi5345.html#a304857dc35a28bd52ce5d06971d39bf5",tooltip=" "];
  Node8 -> Node7 [color="midnightblue",fontsize="10",style="solid"];
  Node5 -> Node9 [color="midnightblue",fontsize="10",style="solid"];
  Node9 [label="si5345::write_register\l_by_size",height=0.2,width=0.4,color="black", fillcolor="white", style="filled",URL="$classsi5345.html#aa872494d50d432eab3df820677ad859f",tooltip=" "];
  Node9 -> Node7 [color="midnightblue",fontsize="10",style="solid"];
  Node4 -> Node10 [color="midnightblue",fontsize="10",style="solid"];
  Node10 [label="si5345::set_MXAXB_numerator",height=0.2,width=0.4,color="black", fillcolor="white", style="filled",URL="$classsi5345.html#a2c8c28fb818b9902064331d20cd14031",tooltip=" "];
  Node10 -> Node6 [color="midnightblue",fontsize="10",style="solid"];
  Node10 -> Node8 [color="midnightblue",fontsize="10",style="solid"];
  Node10 -> Node9 [color="midnightblue",fontsize="10",style="solid"];
  Node4 -> Node11 [color="midnightblue",fontsize="10",style="solid"];
  Node11 [label="si5345::update_MXAXB",height=0.2,width=0.4,color="black", fillcolor="white", style="filled",URL="$classsi5345.html#a6b2fdecc2b4cecf83abb6fe358013cf5",tooltip=" "];
  Node11 -> Node6 [color="midnightblue",fontsize="10",style="solid"];
  Node11 -> Node8 [color="midnightblue",fontsize="10",style="solid"];
  Node11 -> Node7 [color="midnightblue",fontsize="10",style="solid"];
  Node1 -> Node12 [color="midnightblue",fontsize="10",style="solid"];
  Node12 [label="si5345::set_MXAXB_fractional_mode",height=0.2,width=0.4,color="black", fillcolor="white", style="filled",URL="$classsi5345.html#abaa76dde21797e53c1bed328dab035ff",tooltip=" "];
  Node12 -> Node6 [color="midnightblue",fontsize="10",style="solid"];
  Node12 -> Node8 [color="midnightblue",fontsize="10",style="solid"];
  Node12 -> Node7 [color="midnightblue",fontsize="10",style="solid"];
}
