digraph "si5345::read_freq_on_output_channel_no_disable"
{
 // LATEX_PDF_SIZE
  edge [fontname="Helvetica",fontsize="10",labelfontname="Helvetica",labelfontsize="10"];
  node [fontname="Helvetica",fontsize="10",shape=record];
  rankdir="LR";
  Node1 [label="si5345::read_freq_on\l_output_channel_no_disable",height=0.2,width=0.4,color="black", fillcolor="grey75", style="filled", fontcolor="black",tooltip=" "];
  Node1 -> Node2 [color="midnightblue",fontsize="10",style="solid"];
  Node2 [label="si5345::read_divider_N",height=0.2,width=0.4,color="black", fillcolor="white", style="filled",URL="$classsi5345.html#a8274d7866480ae174d8b9ba2fbb0a18d",tooltip=" "];
  Node2 -> Node3 [color="midnightblue",fontsize="10",style="solid"];
  Node3 [label="si5345::read_reg_divider\l_N_denominator",height=0.2,width=0.4,color="black", fillcolor="white", style="filled",URL="$classsi5345.html#a516e69380ddd8cf45f96355c63ae3170",tooltip=" "];
  Node3 -> Node4 [color="midnightblue",fontsize="10",style="solid"];
  Node4 [label="si5345::read_register\l_by_size",height=0.2,width=0.4,color="black", fillcolor="white", style="filled",URL="$classsi5345.html#a2369605bf5dc48c049546c6a954c98b5",tooltip=" "];
  Node4 -> Node5 [color="midnightblue",fontsize="10",style="solid"];
  Node5 [label="si5345_interface::read\l_register",height=0.2,width=0.4,color="black", fillcolor="white", style="filled",URL="$classsi5345__interface.html#a8de0c0bb9b5c7fabb0794c40878eb8b2",tooltip=" "];
  Node2 -> Node6 [color="midnightblue",fontsize="10",style="solid"];
  Node6 [label="si5345::read_reg_divider\l_N_numerator",height=0.2,width=0.4,color="black", fillcolor="white", style="filled",URL="$classsi5345.html#ae7dcff64e480af840344409ad2d8c34c",tooltip=" "];
  Node6 -> Node4 [color="midnightblue",fontsize="10",style="solid"];
  Node1 -> Node7 [color="midnightblue",fontsize="10",style="solid"];
  Node7 [label="si5345::read_divider_R",height=0.2,width=0.4,color="black", fillcolor="white", style="filled",URL="$classsi5345.html#aa13c30fea58297659c04fa9c5003c412",tooltip=" "];
  Node7 -> Node8 [color="midnightblue",fontsize="10",style="solid"];
  Node8 [label="si5345::read_divider\l_RX_denominator",height=0.2,width=0.4,color="black", fillcolor="white", style="filled",URL="$classsi5345.html#a772e3c648ab7b8b06cd83ee51dd1313d",tooltip=" "];
  Node8 -> Node9 [color="midnightblue",fontsize="10",style="solid"];
  Node9 [label="si5345::read_divider\l_RX_REG",height=0.2,width=0.4,color="black", fillcolor="white", style="filled",URL="$classsi5345.html#ab1cf930193a2c5b9e2a1ccdeb0ebe7aa",tooltip=" "];
  Node9 -> Node4 [color="midnightblue",fontsize="10",style="solid"];
  Node8 -> Node10 [color="midnightblue",fontsize="10",style="solid"];
  Node10 [label="si5345::read_reg_OUT0\l_RDIV_FORCE2",height=0.2,width=0.4,color="black", fillcolor="white", style="filled",URL="$classsi5345.html#ad0f2ee01f637c9cf696f9afc8afc01a1",tooltip=" "];
  Node10 -> Node5 [color="midnightblue",fontsize="10",style="solid"];
  Node1 -> Node11 [color="midnightblue",fontsize="10",style="solid"];
  Node11 [label="si5345::read_multisynth\l_for_output_channel",height=0.2,width=0.4,color="black", fillcolor="white", style="filled",URL="$classsi5345.html#a4ea2acdbce37f51f6f0214bcd066fa2c",tooltip=" "];
  Node11 -> Node5 [color="midnightblue",fontsize="10",style="solid"];
}
