digraph "/home/vasile/Desktop/work/cern/cern-driver_si5345/si5345_driver/src/si5345/si5345_interface.hpp"
{
 // LATEX_PDF_SIZE
  edge [fontname="Helvetica",fontsize="10",labelfontname="Helvetica",labelfontsize="10"];
  node [fontname="Helvetica",fontsize="10",shape=record];
  Node1 [label="/home/vasile/Desktop\l/work/cern/cern-driver\l_si5345/si5345_driver/src\l/si5345/si5345_interface.hpp",height=0.2,width=0.4,color="black", fillcolor="grey75", style="filled", fontcolor="black",tooltip=" "];
  Node1 -> Node2 [dir="back",color="midnightblue",fontsize="10",style="solid"];
  Node2 [label="/home/vasile/Desktop\l/work/cern/cern-driver\l_si5345/si5345_driver/src\l/si5345/si5345.hpp",height=0.2,width=0.4,color="black", fillcolor="white", style="filled",URL="$si5345_8hpp.html",tooltip=" "];
  Node2 -> Node3 [dir="back",color="midnightblue",fontsize="10",style="solid"];
  Node3 [label="/home/vasile/Desktop\l/work/cern/cern-driver\l_si5345/si5345_driver/src\l/si5345/si5345.cpp",height=0.2,width=0.4,color="black", fillcolor="white", style="filled",URL="$si5345_8cpp.html",tooltip=" "];
  Node1 -> Node4 [dir="back",color="midnightblue",fontsize="10",style="solid"];
  Node4 [label="/home/vasile/Desktop\l/work/cern/cern-driver\l_si5345/si5345_driver/src\l/si5345/si5345_interface\l_i2c.hpp",height=0.2,width=0.4,color="black", fillcolor="white", style="filled",URL="$si5345__interface__i2c_8hpp.html",tooltip=" "];
  Node4 -> Node5 [dir="back",color="midnightblue",fontsize="10",style="solid"];
  Node5 [label="/home/vasile/Desktop\l/work/cern/cern-driver\l_si5345/si5345_driver/src\l/si5345/si5345_interface\l_i2c.cpp",height=0.2,width=0.4,color="black", fillcolor="white", style="filled",URL="$si5345__interface__i2c_8cpp.html",tooltip=" "];
  Node1 -> Node6 [dir="back",color="midnightblue",fontsize="10",style="solid"];
  Node6 [label="/home/vasile/Desktop\l/work/cern/cern-driver\l_si5345/si5345_driver/src\l/si5345/si5345_interface\l_spi.hpp",height=0.2,width=0.4,color="black", fillcolor="white", style="filled",URL="$si5345__interface__spi_8hpp.html",tooltip=" "];
  Node6 -> Node7 [dir="back",color="midnightblue",fontsize="10",style="solid"];
  Node7 [label="/home/vasile/Desktop\l/work/cern/cern-driver\l_si5345/si5345_driver/src\l/si5345/si5345_interface\l_spi.cpp",height=0.2,width=0.4,color="black", fillcolor="white", style="filled",URL="$si5345__interface__spi_8cpp.html",tooltip=" "];
}
